…
### Getting metadata

Getting metadata about data Elements

``` r
dhis2_play_connection$get_metadata(endpoint = "dataElements")
#> # A tibble: 1,036 × 2
#>    name                                      id         
#>    <chr>                                     <chr>      
#>  1 Accute Flaccid Paralysis (Deaths < 5 yrs) FTRrcoaog83
#>  2 Acute Flaccid Paralysis (AFP) follow-up   P3jJH5Tu5VC
#>  3 Acute Flaccid Paralysis (AFP) new         FQ2o8UBlcrS
#>  4 Acute Flaccid Paralysis (AFP) referrals   M62VHgYT2n0
#>  5 Additional medication                     WO8yRIZb7nb
#>  6 Additional notes related to facility      uF1DLnZNlWe
#>  7 Admission Date                            eMyVanycQSC
#>  8 Age in years                              qrur9Dvnyt5
#>  9 Age of LLINs                              JuTpJ2Ywq5b
#> 10 Albendazole given at ANC (2nd trimester)  hCVSHjcml9g
#> # … with 1,026 more rows
```

Getting metadata about organisation Units

``` r

dhis2_play_connection$get_metadata(endpoint = "organisationUnits",fields =  c("name","id", "level"))
#> # A tibble: 1,332 × 3
#>    name                      id          level
#>    <chr>                     <chr>       <int>
#>  1 Adonkia CHP               Rp268JB6Ne4     4
#>  2 Afro Arab Clinic          cDw53Ej8rju     4
#>  3 Agape CHP                 GvFqTavdpGE     4
#>  4 Ahamadyya Mission Cl      plnHVbJR6p4     4
#>  5 Ahmadiyya Muslim Hospital BV4IomHvri4     4
#>  6 Air Port Centre, Lungi    qjboFI0irVu     4
#>  7 Alkalia CHP               dWOAzMcK2Wt     4
#>  8 Allen Town Health Post    kbGqmM6ZWWV     4
#>  9 Approved School CHP       eoYV2p74eVz     4
#> 10 Arab Clinic               nq7F0t1Pz6t     4
#> # … with 1,322 more rows
```
…
