{
    "pager": {
        "page": 1,
        "total": 109,
        "pageSize": 1,
        "nextPage": "https://play.im.dhis2.org/stable-2-40-5/api/indicators?page=2&pageSize=1&paging=true&fields=%3Aall",
        "pageCount": 109
    },
    "indicators": [
        {
            "href": "https://play.im.dhis2.org/stable-2-40-5/api/indicators/ReUHfIn0pTQ",
            "code": "IN_52462",
            "name": "ANC 1-3 Dropout Rate",
            "created": "2012-11-05T09:16:29.054",
            "lastUpdated": "2013-03-21T11:17:44.926",
            "translations": [
                {
                    "locale": "en_GB",
                    "property": "SHORT_NAME",
                    "value": "ANC Dropout Rate"
                },
                {
                    "locale": "en_GB",
                    "property": "DESCRIPTION",
                    "value": "Indicates the percentage of clients dropping out between the 1st and the 3rd ANC visit. Calculated as the difference between ANC1 and ANC3 by the ANC 1 visits."
                },
                {
                    "locale": "fr",
                    "property": "SHORT_NAME",
                    "value": " Taux d'abandon d'ANC 1-3"
                },
                {
                    "locale": "fr",
                    "property": "NAME",
                    "value": " Taux d'abandon d'ANC 1-3"
                },
                {
                    "locale": "en_GB",
                    "property": "NAME",
                    "value": "ANC Dropout Rate"
                }
            ],
            "externalAccess": false,
            "publicAccess": "rw------",
            "createdBy": {
                "id": "GOLswS44mh8",
                "code": null,
                "name": "Tom Wakiki",
                "displayName": "Tom Wakiki",
                "username": "system"
            },
            "userGroupAccesses": [

            ],
            "userAccesses": [

            ],
            "access": {
                "manage": true,
                "externalize": false,
                "write": true,
                "read": true,
                "update": true,
                "delete": true
            },
            "favorites": [

            ],
            "sharing": {
                "owner": "GOLswS44mh8",
                "external": false,
                "users": {

                },
                "userGroups": {

                },
                "public": "rw------"
            },
            "shortName": "ANC 1-3 Dropout Rate",
            "description": "Indicates the percentage of clients dropping out between the 1st and the 3rd ANC visit. Calculated as the difference between ANC1 and ANC3 by the ANC 1 visits.",
            "dimensionItemType": "INDICATOR",
            "legendSets": [

            ],
            "annualized": false,
            "indicatorType": {
                "id": "bWuNrMHEoZ0"
            },
            "numerator": "#{fbfJHSPpUQD.pq2XI5kz2BY}+#{fbfJHSPpUQD.PT59n8BQbqM}-#{Jtf34kNZhzP.pq2XI5kz2BY}-#{Jtf34kNZhzP.PT59n8BQbqM}",
            "numeratorDescription": "ANC1-ANC3",
            "denominator": "#{fbfJHSPpUQD.pq2XI5kz2BY}+#{fbfJHSPpUQD.PT59n8BQbqM}",
            "denominatorDescription": "Total 1st ANC visits",
            "url": "",
            "dataSets": [

            ],
            "displayNumeratorDescription": "ANC1-ANC3",
            "displayDenominatorDescription": "Total 1st ANC visits",
            "dimensionItem": "ReUHfIn0pTQ",
            "displayShortName": " Taux d'abandon d'ANC 1-3",
            "displayDescription": "Indicates the percentage of clients dropping out between the 1st and the 3rd ANC visit. Calculated as the difference between ANC1 and ANC3 by the ANC 1 visits.",
            "displayName": " Taux d'abandon d'ANC 1-3",
            "favorite": false,
            "user": {
                "id": "GOLswS44mh8",
                "code": null,
                "name": "Tom Wakiki",
                "displayName": "Tom Wakiki",
                "username": "system"
            },
            "displayFormName": "Taux d'abandon d'ANC 1-3",
            "id": "ReUHfIn0pTQ",
            "attributeValues": [

            ],
            "indicatorGroups": [
                {
                    "id": "oehv9EO3vP7"
                },
                {
                    "id": "YTeRMLGtger"
                }
            ]
        }
    ]
}
