{
    "pager": {
        "page": 1,
        "total": 109,
        "pageSize": 50,
        "nextPage": "https://play.im.dhis2.org/stable-2-40-5/api/indicators?page=2&fields=name%2Cid",
        "pageCount": 3
    },
    "indicators": [
        {
            "name": "ANC 1-3 Dropout Rate",
            "id": "ReUHfIn0pTQ"
        },
        {
            "name": "ANC 1 Coverage",
            "id": "Uvn6LCg7dVU"
        },
        {
            "name": "ANC 2 Coverage",
            "id": "OdiHJayrsKo"
        },
        {
            "name": "ANC 3 Coverage",
            "id": "sB79w2hiLp8"
        },
        {
            "name": "ANC => 4 Coverage",
            "id": "AUqdhY4mpvp"
        },
        {
            "name": "ANC IPT 1 Coverage",
            "id": "dwEq7wi6nXV"
        },
        {
            "name": "ANC IPT 2 Coverage",
            "id": "c8fABiNpT0B"
        },
        {
            "name": "ANC LLITN coverage",
            "id": "Tt5TAvdfdVK"
        },
        {
            "name": "ANC TT2 coverage",
            "id": "puykO1tbcdi"
        },
        {
            "name": "ANC visits per clinical professional",
            "id": "Lzg9LtG1xg3"
        },
        {
            "name": "ANC visits total",
            "id": "dy1a1mseGR7"
        },
        {
            "name": "BCG Coverage <1y",
            "id": "FnYCr2EAzWS"
        },
        {
            "name": "BCG Coverage - Adjusted for reporting",
            "id": "iCBpPh3ehjg"
        },
        {
            "name": "BCG doses coverage at facility",
            "id": "Z33QjkcycFQ"
        },
        {
            "name": "BCG Stock PHU",
            "id": "OEWO2PpiUKx"
        },
        {
            "name": "Births attended by skilled health personnel (estimated pregancies)",
            "id": "elTqMUTRgdk"
        },
        {
            "name": "Births attended by skilled health personnel (registered live births)",
            "id": "ulgL07PF8rq"
        },
        {
            "name": "Births total",
            "id": "gNAXtpqAqW2"
        },
        {
            "name": "CoD - Communicable, maternal, perinatal and nutritional conditions",
            "id": "yqpnxDGGxBj"
        },
        {
            "name": "CoD - External causes of mortality",
            "id": "I9RILQkeEJJ"
        },
        {
            "name": "CoD - Non-communicable disease",
            "id": "NcY3yEfy5ua"
        },
        {
            "name": "CoD - Percentage of AIDS, 0 - 4",
            "id": "jDA2MDrb11c"
        },
        {
            "name": "CoD - Percentage of AIDS, 15 - 49",
            "id": "LzTSVWcHcUt"
        },
        {
            "name": "CoD - Percentage of AIDS, 50+",
            "id": "i9Bw8Avpdya"
        },
        {
            "name": "CoD - Percentage of AIDS, 5 - 14",
            "id": "odV5MLupr0l"
        },
        {
            "name": "CoD - Percentage of Malaria deaths, 0-6 days",
            "id": "fWFVTD4s9Pv"
        },
        {
            "name": "CoD - Percentage of Malaria deaths, 1 - 4 yrs",
            "id": "F7UC9N85W6E"
        },
        {
            "name": "CoD - Percentage of Malaria deaths, 15+ yrs",
            "id": "FHbcZH9eP8C"
        },
        {
            "name": "CoD - Percentage of Malaria deaths, 28-365 days",
            "id": "YQFDlHHciZ9"
        },
        {
            "name": "CoD - Percentage of Malaria deaths, 5 - 14 yrs",
            "id": "IhGq1T65Mrp"
        },
        {
            "name": "CoD - Percentage of Malaria deaths, 7-27 days",
            "id": "ZlMRBfKhr3A"
        },
        {
            "name": "CoD - Percentage of TB, AIDS and Malaria (from communicable diseses), 0 - 4",
            "id": "DHxwdMnnEhp"
        },
        {
            "name": "CoD - Percentage of TB, AIDS and Malaria (from communicable diseses), 15 - 49",
            "id": "nG4ITg8hrrF"
        },
        {
            "name": "CoD - Percentage of TB, AIDS and Malaria (from communicable diseses), 50 - 74",
            "id": "iooUsQINIYk"
        },
        {
            "name": "CoD - Percentage of TB, AIDS and Malaria (from communicable diseses), 5 - 14",
            "id": "bKLqFfc6ZIk"
        },
        {
            "name": "CoD - Percentage of TB, AIDS and Malaria (from communicable diseses), 75+",
            "id": "B1zBU8cKFRo"
        },
        {
            "name": "CoD - Percentage of TB, AIDS (from all causes of death), 15 - 24",
            "id": "WIEflTHNHGt"
        },
        {
            "name": "CoD - Percentage of TB, AIDS (from all causes of death), 25 - 34",
            "id": "HLHHkjZzhZr"
        },
        {
            "name": "CoD - Percentage of TB, AIDS (from all causes of death), 35 - 49",
            "id": "fXR85loNh4h"
        },
        {
            "name": "CoD - Percentage of TB, AIDS (from all causes of death), 50 - 74",
            "id": "lTm1yRk1TdN"
        },
        {
            "name": "CoD - Percentage of TB, AIDS (from all causes of death), 75+",
            "id": "RDnflh6o7NF"
        },
        {
            "name": "CoD - Percentage of Tuberculosis, 0 - 4",
            "id": "IblX3RCMH8R"
        },
        {
            "name": "CoD - Percentage of Tuberculosis, 15 - 49",
            "id": "Cbgjb32yCqi"
        },
        {
            "name": "CoD - Percentage of Tuberculosis, 50+",
            "id": "tRKZecNOlsl"
        },
        {
            "name": "CoD - Percentage of Tuberculosis, 5 - 14",
            "id": "xGxqMonswYK"
        },
        {
            "name": "CoD - Proportion - Communicable, maternal, perinatal and nutritional conditions",
            "id": "qoq4LfF8E61"
        },
        {
            "name": "CoD - Proportion - External causes of mortality",
            "id": "tln3upB4BS6"
        },
        {
            "name": "CoD - Proportion - Non-communicable disease",
            "id": "OIZTau847kT"
        },
        {
            "name": "CoD - Proportion - Symptoms, signs and abnormal findings (ill-defined)",
            "id": "uL1LMOUhAcn"
        },
        {
            "name": "CoD - Symptoms, signs and abnormal findings (ill-defined)",
            "id": "RuBREnDeVlD"
        }
    ]
}
