Connect and pull/get data from a DHIS2 instance — Dhis2r • dhis2r
…
    Examples

# Load dhis2r
library(dhis2r)
# connect to the DHIS2 instance
dhis2_play_connection <- Dhis2r$new(base_url = "https://play.im.dhis2.org/stable-2-40-5",
username = "admin",
password = "district")

# get all the available resources
dhis2_play_connection$get_metadata()
#> [1] "https://play.im.dhis2.org/stable-2-40-5/api/resources"
#> # A tibble: 89 × 4
#>    displayName                     singular                    plural      href 
#>    <chr>                           <chr>                       <chr>       <chr>
#>  1 Program Rules                   programRule                 programRul… http…
#>  2 Aggregate Data Exchanges        aggregateDataExchange       aggregateD… http…
#>  3 Tracked Entity Instance Filters trackedEntityInstanceFilter trackedEnt… http…
#>  4 Program Stages                  programStage                programSta… http…
#>  5 Options                         option                      options     http…
#>  6 Program Sections                programSection              programSec… http…
#>  7 Proposals                       proposal                    proposals   http…
#>  8 Option Group Sets               optionGroupSet              optionGrou… http…
#>  9 Indicator Groups                indicatorGroup              indicatorG… http…
#> 10 Job Configurations              jobConfiguration            jobConfigu… http…
#> # ℹ 79 more rows
…
dhis2_play_connection$get_analytics(analytic = c("Uvn6LCg7dVU"),
org_unit =   c("O6uvpzGd5pu", "fdc6uOvgoji"),
period = "LAST_12_MONTHS",
 output_scheme = "NAME")
#> [1] "https://play.im.dhis2.org/stable-2-40-5/api/analytics?dimension=dx%3AUvn6LCg7dVU&dimension=ou%3AO6uvpzGd5pu%3Bfdc6uOvgoji&dimension=pe%3ALAST_12_MONTHS&outputIdScheme=NAME"
#> # A tibble: 22 × 4
#>    analytic       org_unit period        value
#>    <fct>          <fct>    <chr>         <dbl>
#>  1 ANC 1 Coverage Bo       November 2023  194.
#>  2 ANC 1 Coverage Bo       December 2023  111.
#>  3 ANC 1 Coverage Bo       January 2024   127.
#>  4 ANC 1 Coverage Bo       February 2024  133.
#>  5 ANC 1 Coverage Bo       March 2024     124.
#>  6 ANC 1 Coverage Bo       April 2024     133.
#>  7 ANC 1 Coverage Bo       May 2024       154.
#>  8 ANC 1 Coverage Bo       June 2024      142.
#>  9 ANC 1 Coverage Bo       July 2024      171.
#> 10 ANC 1 Coverage Bo       August 2024    144.
#> # ℹ 12 more rows
…
