Getting started with dhis2r • dhis2r
…
Get access rights information about the account

dhis2_play_connection$access_rights
#>      manage externalize       write        read      update      delete 
#>        TRUE       FALSE        TRUE        TRUE        TRUE        TRUE

Get metadata

Get all resources on which you can get metadata on.

 dhis2_play_connection$get_metadata()
#> [1] "https://play.dhis2.org/2.39.4.1/api/resources?paging=false"
#> # A tibble: 87 × 4
#>    displayName                             singular                 plural href 
#>    <chr>                                   <chr>                    <chr>  <chr>
#>  1 Data Element Group Sets                 dataElementGroupSet      dataE… http…
#>  2 Options                                 option                   optio… http…
#>  3 Category Combos                         categoryCombo            categ… http…
#>  4 Push Analysis                           pushAnalysis             pushA… http…
#>  5 Programs                                program                  progr… http…
#>  6 Event Filters                           eventFilter              event… http…
#>  7 Sections                                section                  secti… http…
#>  8 Program Sections                        programSection           progr… http…
#>  9 Program Tracked Entity Attribute Groups programTrackedEntityAtt… progr… http…
#> 10 Proposals                               proposal                 propo… http…
#> # ℹ 77 more rows

Get metadata on Data Elements using the plural name
dataElements.

dhis2_play_connection$get_metadata(endpoint = "dataElements")
#> [1] "https://play.dhis2.org/2.39.4.1/api/dataElements?paging=false&fields=name%2Cid"
#> # A tibble: 1,038 × 2
#>    name                                               id         
#>    <chr>                                              <chr>      
#>  1 # of AIDS patients_DO                              OKhG8WEnV2M
#>  2 ANC 1st visit                                      fbfJHSPpUQD
#>  3 ANC 2nd visit                                      cYeuwXTCPkU
#>  4 ANC 3rd visit                                      Jtf34kNZhzP
#>  5 ANC 4th or more visits                             hfdmMSPBgLG
#>  6 ARI treated with antibiotics (pneumonia) follow-up FHD3wiSM7Sn
#>  7 ARI treated with antibiotics (pneumonia) new       iKGjnOOaPlE
#>  8 ARI treated with antibiotics (pneumonia) referrals XTqOHygxDj5
#>  9 ARI treated without antibiotics (cough) follow-up  RF4VFVGdFRO
#> 10 ARI treated without antibiotics (cough) new        Cm4XUw6VAxv
#> # ℹ 1,028 more rows
…
Getting metadata fields beyond ID and Name

dataElements

 dhis2_play_connection$get_metadata(endpoint = "dataElements", fields = c("name","id","aggregationType"))
#> [1] "https://play.dhis2.org/2.39.4.1/api/dataElements?paging=false&fields=name%2Cid%2CaggregationType"
#> # A tibble: 1,038 × 3
#>    name                                               aggregationType id        
#>    <chr>                                              <chr>           <chr>     
#>  1 # of AIDS patients_DO                              SUM             OKhG8WEnV…
#>  2 ANC 1st visit                                      SUM             fbfJHSPpU…
#>  3 ANC 2nd visit                                      SUM             cYeuwXTCP…
#>  4 ANC 3rd visit                                      SUM             Jtf34kNZh…
#>  5 ANC 4th or more visits                             SUM             hfdmMSPBg…
#>  6 ARI treated with antibiotics (pneumonia) follow-up SUM             FHD3wiSM7…
#>  7 ARI treated with antibiotics (pneumonia) new       SUM             iKGjnOOaP…
#>  8 ARI treated with antibiotics (pneumonia) referrals SUM             XTqOHygxD…
#>  9 ARI treated without antibiotics (cough) follow-up  SUM             RF4VFVGdF…
#> 10 ARI treated without antibiotics (cough) new        SUM             Cm4XUw6VA…
#> # ℹ 1,028 more rows

organisationUnits

dhis2_play_connection$get_metadata(endpoint = "organisationUnits",
                                                        fields =  c("name","id", "level"))
#> [1] "https://play.dhis2.org/2.39.4.1/api/organisationUnits?paging=false&fields=name%2Cid%2Clevel"
#> # A tibble: 1,332 × 3
#>    name                        id          level
#>    <chr>                       <chr>       <int>
#>  1 " Panderu MCHP"             ueuQlqb8ccl     4
#>  2 "Adonkia CHP"               Rp268JB6Ne4     4
#>  3 "Afro Arab Clinic"          cDw53Ej8rju     4
#>  4 "Agape CHP"                 GvFqTavdpGE     4
#>  5 "Ahamadyya Mission Cl"      plnHVbJR6p4     4
#>  6 "Ahmadiyya Muslim Hospital" BV4IomHvri4     4
#>  7 "Air Port Centre, Lungi"    qjboFI0irVu     4
#>  8 "Alkalia CHP"               dWOAzMcK2Wt     4
#>  9 "Allen Town Health Post"    kbGqmM6ZWWV     4
#> 10 "Approved School CHP"       eoYV2p74eVz     4
#> # ℹ 1,322 more rows
…
indicators

dhis2_play_connection$get_metadata(endpoint = "indicators")
#> [1] "https://play.dhis2.org/2.39.4.1/api/indicators?paging=false&fields=name%2Cid"
#> # A tibble: 77 × 2
#>    name                                 id         
#>    <chr>                                <chr>      
#>  1 ANC 1 Coverage                       Uvn6LCg7dVU
#>  2 ANC 1-3 Dropout Rate                 ReUHfIn0pTQ
#>  3 ANC 2 Coverage                       OdiHJayrsKo
#>  4 ANC 3 Coverage                       sB79w2hiLp8
#>  5 ANC => 4 Coverage                    AUqdhY4mpvp
#>  6 ANC IPT 1 Coverage                   dwEq7wi6nXV
#>  7 ANC IPT 2 Coverage                   c8fABiNpT0B
#>  8 ANC LLITN coverage                   Tt5TAvdfdVK
#>  9 ANC TT2 coverage                     puykO1tbcdi
#> 10 ANC visits per clinical professional Lzg9LtG1xg3
#> # ℹ 67 more rows
…
